%YAML 1.1
%TAG !u! tag:unity3d.com,2011:
--- !u!21 &2100000
Material:
  serializedVersion: 6
  m_ObjectHideFlags: 0
  m_PrefabParentObject: {fileID: 0}
  m_PrefabInternal: {fileID: 0}
  m_Name: BrickWall 6
  m_Shader: {fileID: 46, guid: 0000000000000000f000000000000000, type: 0}
  m_ShaderKeywords: TCP2_BUMP TCP2_RIM _NORMALMAP _PARALLAXMAP _SELFOCCLUSION_ON
  m_LightmapFlags: 4
  m_EnableInstancingVariants: 1
  m_DoubleSidedGI: 0
  m_CustomRenderQueue: -1
  stringTagMap: {}
  disabledShaderPasses: []
  m_SavedProperties:
    serializedVersion: 3
    m_TexEnvs:
    - _BumpMap:
        m_Texture: {fileID: 2800000, guid: 25ea9bc4cb2f166428432cf4f7592035, type: 3}
        m_Scale: {x: 0.8, y: 0.8}
        m_Offset: {x: 0, y: 0}
    - _DetailAlbedoMap:
        m_Texture: {fileID: 0}
        m_Scale: {x: 1, y: 1}
        m_Offset: {x: 0, y: 0}
    - _DetailMask:
        m_Texture: {fileID: 0}
        m_Scale: {x: 1, y: 1}
        m_Offset: {x: 0, y: 0}
    - _DetailNormalMap:
        m_Texture: {fileID: 0}
        m_Scale: {x: 1, y: 1}
        m_Offset: {x: 0, y: 0}
    - _EmissionMap:
        m_Texture: {fileID: 0}
        m_Scale: {x: 1, y: 1}
        m_Offset: {x: 0, y: 0}
    - _HeightMap:
        m_Texture: {fileID: 2800000, guid: e5d742af25c128247b998a1dffdca1c0, type: 3}
        m_Scale: {x: 1, y: 1}
        m_Offset: {x: 0, y: 0}
    - _MainTex:
        m_Texture: {fileID: 2800000, guid: 840ad1da9cc86f24e89d1fd7e4cfdce8, type: 3}
        m_Scale: {x: 0.8, y: 0.8}
        m_Offset: {x: 0, y: 0}
    - _MetallicGlossMap:
        m_Texture: {fileID: 0}
        m_Scale: {x: 1, y: 1}
        m_Offset: {x: 0, y: 0}
    - _OcclusionMap:
        m_Texture: {fileID: 0}
        m_Scale: {x: 1, y: 1}
        m_Offset: {x: 0, y: 0}
    - _ParallaxMap:
        m_Texture: {fileID: 2800000, guid: e5d742af25c128247b998a1dffdca1c0, type: 3}
        m_Scale: {x: 1, y: 1}
        m_Offset: {x: 0, y: 0}
    - _Ramp:
        m_Texture: {fileID: 0}
        m_Scale: {x: 1, y: 1}
        m_Offset: {x: 0, y: 0}
    - _SpecGlossMap:
        m_Texture: {fileID: 0}
        m_Scale: {x: 1, y: 1}
        m_Offset: {x: 0, y: 0}
    - _SpecGlossMap2:
        m_Texture: {fileID: 0}
        m_Scale: {x: 1, y: 1}
        m_Offset: {x: 0, y: 0}
    - _TangentDir:
        m_Texture: {fileID: 2800000, guid: e5d742af25c128247b998a1dffdca1c0, type: 3}
        m_Scale: {x: 1, y: 1}
        m_Offset: {x: 0, y: 0}
    m_Floats:
    - _BumpScale: 2
    - _Cutoff: 0.5
    - _DetailNormalMapScale: 1
    - _DiffuseScatteringBias: 0
    - _DiffuseScatteringBias2: 0
    - _DiffuseScatteringContraction: 8
    - _DiffuseScatteringContraction2: 8
    - _DstBlend: 0
    - _EdgeLength: 1
    - _EnableIndependentPuddleMaskTiling: 0
    - _EnableMetallGlossMap: 0
    - _EnablePOM: 0
    - _GlossMapScale: 1
    - _Glossiness: 0
    - _GlossyReflections: 1
    - _Grid: 0
    - _HeightMapScale: 0.02
    - _HelpSnowMapping: 0
    - _LinearSteps: 20
    - _Lux_FlowInterval: 1
    - _Lux_FlowNormalStrength: 1
    - _Lux_FlowNormalTiling: 2
    - _Lux_FlowRefraction: 0.02
    - _Lux_FlowSpeed: 0.05
    - _MaxDist: 25
    - _MaxParallaxSamples: 100
    - _Metallic: 0
    - _MinDist: 7
    - _MinParallaxSamples: 25
    - _Mode: 0
    - _OcclusionStrength: 1
    - _Parallax: 0.014
    - _ParallaxTiling: 1
    - _Phong: 0
    - _PuddleMaskTiling: 1
    - _RampSmooth: 0.136
    - _RampThreshold: 0.766
    - _RimMax: 1
    - _RimMin: 0.664
    - _SelfOcclusion: 1
    - _SelfOcclusionOffset: 0.01
    - _SelfOcclusionStrength: 0.51
    - _SmoothnessTextureChannel: 0
    - _SnowDetailStrength: 0.5
    - _SnowMapping: 0
    - _SnowNormalStrength: 1
    - _SnowOpacity: 0.5
    - _SnowSlopeDamp: 1
    - _SpecularHighlights: 1
    - _SrcBlend: 1
    - _TangentDirStrength: 1
    - _Translucency: 0
    - _UVSec: 0
    - _UVs: 0
    - _WaterSlopeDamp: 0.5
    - _ZWrite: 1
    m_Colors:
    - _BaseTangentDir: {r: 0, g: 1, b: 0, a: 0}
    - _Color: {r: 0.9264706, g: 0.9264706, b: 0.9264706, a: 1}
    - _Color2: {r: 1, g: 1, b: 1, a: 1}
    - _DiffuseScatteringCol: {r: 0, g: 0, b: 0, a: 1}
    - _DiffuseScatteringCol2: {r: 0, g: 0, b: 0, a: 1}
    - _EmissionColor: {r: 0, g: 0, b: 0, a: 1}
    - _HColor: {r: 0.9117647, g: 0.9117647, b: 0.9117647, a: 1}
    - _ParallaxToBaseRatio: {r: 1, g: 1, b: 0, a: 0}
    - _RimColor: {r: 0, g: 0.46206903, b: 1, a: 0.066}
    - _RimDir: {r: 0, g: 0, b: 1, a: 0}
    - _SColor: {r: 0.44117647, g: 0.17517301, b: 0.17517301, a: 0.603}
    - _SnowAccumulation: {r: 0, g: 1, b: 0, a: 0}
    - _SnowDetailTiling: {r: 4, g: 4, b: 0, a: 0}
    - _SnowMaskTiling: {r: 0.3, g: 0.3, b: 0, a: 0}
    - _SnowTiling: {r: 2, g: 2, b: 0, a: 0}
    - _UVRatio: {r: 1, g: 1, b: 1, a: 0}
    - _WaterAccumulationCracksPuddles: {r: 0, g: 1, b: 0, a: 1}
    - _WaterAccumulationCracksPuddles2: {r: 0, g: 1, b: 0, a: 1}
    - _WaterColor: {r: 0, g: 0, b: 0, a: 0}
    - _WaterColor2: {r: 0, g: 0, b: 0, a: 0}
